Exercises Assignment #6: HOMEWORK
…
data("iris")

paged_table(iris)

Transform it to longer

Here I transform iris dataset to longer by using tidyr::pivot_longer() to get 3 columns - Species | Trait | Size.

iris_long <- iris %>% 
  tidyr::pivot_longer(cols=matches("Sepal|Petal"), names_to = "Trait", values_to = "Size") 

iris_long

# A tibble: 600 × 3
   Species Trait         Size
   <fct>   <chr>        <dbl>
 1 setosa  Sepal.Length   5.1
 2 setosa  Sepal.Width    3.5
 3 setosa  Petal.Length   1.4
 4 setosa  Petal.Width    0.2
 5 setosa  Sepal.Length   4.9
 6 setosa  Sepal.Width    3  
 7 setosa  Petal.Length   1.4
 8 setosa  Petal.Width    0.2
 9 setosa  Sepal.Length   4.7
10 setosa  Sepal.Width    3.2
# ℹ 590 more rows
…
